material TropicalSunnyDay
{
    technique
    {
        pass
        {
            lighting off
            depth_write off

            texture_unit
            {
                cubic_texture TropicalSunnyDayBack.png  TropicalSunnyDayFront.png TropicalSunnyDayLeft.png TropicalSunnyDayRight.png   TropicalSunnyDayUP.png TropicalSunnyDayDown.png separateUV
                tex_address_mode clamp
            }
        }
    }
}
