
material Panel_black
{
	technique
    {
        pass
        {
        	 lighting off
            scene_blend alpha_blend
            depth_check off

            texture_unit
            {
                texture panel_black.png
                tex_address_mode clamp
            }
        }
    }
}